…
    /*
    | | ___   __ _
    | |/ _ \ / _` |
    | | (_) | (_| |
    |_|\___/ \__, |
             |___/
    */

    > library(haven)
    > library(sqldf)
    > source("c:/oto/fn_tosas9x.R")
    > options(sqldf.dll = "d:/dll/sqlean.dll")
    > iris_sas7bdat<-read_sas("d:/sd1/iris_df.sas7bdat")
    > print(have)
    # A tibble: 150 × 5
       Sepal_Length Sepal_Width Petal_Length Petal_Width Species
              <dbl>       <dbl>        <dbl>       <dbl> <chr>
     1          5.1         3.5          1.4         0.2 setosa
     2          4.9         3            1.4         0.2 setosa
     3          4.7         3.2          1.3         0.2 setosa
     4          4.6         3.1          1.5         0.2 setosa
     5          5           3.6          1.4         0.2 setosa
     6          5.4         3.9          1.7         0.4 setosa
     7          4.6         3.4          1.4         0.3 setosa
     8          5           3.4          1.5         0.2 setosa
     9          4.4         2.9          1.4         0.2 setosa
    10          4.9         3.1          1.5         0.1 setosa
    # ? 140 more rows
    # ? Use `print(n = ...)` to see more rows
…
